<?xml version="1.0" encoding="utf-8"?>
<!-- Generator: Adobe Illustrator 19.0.0, SVG Export Plug-In . SVG Version: 6.00 Build 0)  -->
<svg version="1.1" id="Layer_1" xmlns="http://www.w3.org/2000/svg" xmlns:xlink="http://www.w3.org/1999/xlink" x="0px" y="0px"
	 viewBox="0 0 795 333" style="enable-background:new 0 0 795 333;" xml:space="preserve">
<style type="text/css">
	.st0{fill:#3D9ACF;}
	.st1{fill:#E6F2F9;}
</style>
<polygon id="XMLID_1_" class="st0" points="51,0 234.3,333 790,333 607,0 "/>
<polygon id="XMLID_2_" class="st1" points="16,0 199.3,333 235,333 52,0 "/>
</svg>
