<?xml version="1.0" encoding="UTF-8"?>
<svg width="20px" height="20px" viewBox="0 0 20 20" version="1.1" xmlns="http://www.w3.org/2000/svg" xmlns:xlink="http://www.w3.org/1999/xlink">
    <title>02EC26E6-F22D-4DE4-9272-6676974B7F78</title>
    <g id="Page-1" stroke="none" stroke-width="1" fill="none" fill-rule="evenodd">
        <g id="HBKU-Home1" transform="translate(-292.000000, -35.000000)" fill="#FFFFFF" fill-rule="nonzero">
            <g id="prayer-time-copy" transform="translate(282.000000, 25.000000)">
                <path d="M19.2857236,12.1428593 L19.2857236,10.7142864 C19.2857236,10.3197969 19.6055206,10 20.0000101,10 C20.3944996,10 20.7142965,10.3197969 20.7142965,10.7142864 L20.7142965,12.1428593 C20.7142965,12.5373488 20.3944996,12.8571457 20.0000101,12.8571457 C19.6055206,12.8571457 19.2857236,12.5373488 19.2857236,12.1428593 Z M27.1428744,20.0000101 C27.1428744,20.3944996 27.4626713,20.7142965 27.8571608,20.7142965 L29.2857337,20.7142965 C29.6802232,20.7142965 30.0000202,20.3944996 30.0000202,20.0000101 C30.0000202,19.6055206 29.6802232,19.2857236 29.2857337,19.2857236 L27.8571608,19.2857236 C27.4626713,19.2857236 27.1428744,19.6055206 27.1428744,20.0000101 Z M26.428588,15.7143034 C26.6184474,15.7153892 26.800932,15.6408532 26.9357313,15.5071484 L27.6500178,14.792862 C27.8927157,14.5094615 27.8763982,14.0870083 27.6125629,13.823173 C27.3487276,13.5593377 26.9262744,13.5430201 26.6428739,13.7857181 L25.9285875,14.5000045 C25.7285018,14.7040764 25.669319,15.0077702 25.7781359,15.2720399 C25.8869529,15.5363096 26.1428197,15.7102771 26.428588,15.7143034 Z M29.9500201,29.1928765 C29.9768974,29.3978129 29.9136841,29.6043442 29.7767062,29.7591291 C29.6397284,29.9139141 29.4424176,30.0017751 29.2357337,30.0000459 L10.7642865,30.0000459 C10.5576026,30.0017751 10.3602918,29.9139141 10.2233139,29.7591291 C10.0863361,29.6043442 10.0231227,29.3978129 10.0500001,29.1928765 C10.471429,26.1428734 13.0571459,24.2857287 14.5714332,23.4357278 C12.8678563,20.7438558 13.392663,17.21034 15.8050532,15.1297818 C18.2174435,13.0492235 21.7897195,13.0492235 24.2021098,15.1297818 C26.6145001,17.21034 27.1393067,20.7438558 25.4357298,23.4357278 C26.8214455,24.1857286 29.5285911,26.0500162 29.9500201,29.1928765 Z M14.9999365,20.0000101 C14.9946673,21.0196989 15.3012278,22.0166433 15.8785774,22.8571558 C17.1946613,22.3598544 18.5933334,22.1174502 20.0000101,22.1428694 C21.4019579,22.1466708 22.7931098,22.3881902 24.1142999,22.8571558 C25.3357204,21.0884329 25.2900291,18.7369923 24.0008199,17.0170539 C22.7116107,15.2971155 20.4674108,14.5936045 18.427064,15.269795 C16.3867173,15.9459854 15.0068568,17.8505447 14.9999365,20.0000101 Z M28.3500185,28.5714473 C27.4500176,25.7785873 24.1643,24.3857288 24.0642999,24.3571573 L24.0642999,24.3571573 C21.4406071,23.3387626 18.5308416,23.3387626 15.9071488,24.3571573 C15.2785767,24.6500148 12.4642882,26.0643019 11.6214302,28.5785901 L28.3500185,28.5714473 Z M13.0642888,15.5071484 C13.3443764,15.7872359 13.798488,15.7872359 14.0785755,15.5071484 C14.3586631,15.2270609 14.3586631,14.7729492 14.0785755,14.4928617 L13.3642891,13.7785752 C13.0842016,13.4984877 12.6300899,13.4984877 12.3500024,13.7785752 C12.0699148,14.0586628 12.0699148,14.5127744 12.3500024,14.792862 L13.0642888,15.5071484 Z M10.7142864,20.8357252 L12.1428593,20.8357252 C12.5373488,20.8357252 12.8571457,20.5159283 12.8571457,20.1214388 C12.8571457,19.7269493 12.5373488,19.4071523 12.1428593,19.4071523 L10.7142864,19.4071523 C10.3197969,19.4071523 10,19.7269493 10,20.1214388 C10,20.5159283 10.3197969,20.8357252 10.7142864,20.8357252 Z" id="Shape"></path>
            </g>
        </g>
    </g>
</svg>